<mxfile host="app.diagrams.net" modified="2020-12-14T00:11:28.833Z" agent="5.0 (Windows NT 10.0; Win64; x64) AppleWebKit/537.36 (KHTML, like Gecko) Chrome/87.0.4280.88 Safari/537.36" etag="B39noBGYWcHPfZxIvSLi" version="14.0.1" type="gitlab">
  <diagram id="xfZaYPJ1a8qbjgUNA-4P" name="Page-1">
    <mxGraphModel dx="806" dy="490" grid="1" gridSize="10" guides="1" tooltips="1" connect="1" arrows="1" fold="1" page="1" pageScale="1" pageWidth="827" pageHeight="1169" background="#114B5F" math="0" shadow="0">
      <root>
        <mxCell id="0" />
        <mxCell id="1" parent="0" />
        <mxCell id="07-O2uwcBHounxBqs-oA-1" value="" style="aspect=fixed;perimeter=ellipsePerimeter;html=1;align=center;shadow=0;dashed=0;spacingTop=3;image;image=img/lib/active_directory/databases.svg;labelBackgroundColor=#114B5F;fillColor=#F45B69;strokeColor=#028090;fontColor=#E4FDE1;" vertex="1" parent="1">
          <mxGeometry x="350.18" y="40" width="132.65" height="130" as="geometry" />
        </mxCell>
        <mxCell id="07-O2uwcBHounxBqs-oA-4" value="" style="aspect=fixed;html=1;points=[];align=center;image;fontSize=12;image=img/lib/azure2/general/File.svg;labelBackgroundColor=#114B5F;fillColor=#F45B69;strokeColor=#028090;fontColor=#E4FDE1;" vertex="1" parent="1">
          <mxGeometry x="225.48" y="190" width="56.00000000000001" height="69" as="geometry" />
        </mxCell>
        <mxCell id="07-O2uwcBHounxBqs-oA-5" value="" style="aspect=fixed;html=1;points=[];align=center;image;fontSize=12;image=img/lib/azure2/general/File.svg;labelBackgroundColor=#114B5F;fillColor=#F45B69;strokeColor=#028090;fontColor=#E4FDE1;" vertex="1" parent="1">
          <mxGeometry x="610" y="190" width="56.00000000000001" height="69" as="geometry" />
        </mxCell>
        <mxCell id="07-O2uwcBHounxBqs-oA-22" value="" style="endArrow=block;html=1;startArrow=block;startFill=1;endFill=1;strokeColor=#028090;labelBackgroundColor=#114B5F;fontColor=#E4FDE1;" edge="1" parent="1">
          <mxGeometry width="100" height="100" relative="1" as="geometry">
            <mxPoint x="100" y="340" as="sourcePoint" />
            <mxPoint x="216.95000000000002" y="230" as="targetPoint" />
          </mxGeometry>
        </mxCell>
        <mxCell id="07-O2uwcBHounxBqs-oA-23" value="" style="endArrow=block;html=1;startArrow=block;startFill=1;endFill=1;strokeColor=#028090;labelBackgroundColor=#114B5F;fontColor=#E4FDE1;" edge="1" parent="1">
          <mxGeometry width="100" height="100" relative="1" as="geometry">
            <mxPoint x="430" y="340" as="sourcePoint" />
            <mxPoint x="290" y="230" as="targetPoint" />
          </mxGeometry>
        </mxCell>
        <mxCell id="07-O2uwcBHounxBqs-oA-24" value="" style="html=1;verticalLabelPosition=bottom;align=center;verticalAlign=top;strokeWidth=2;strokeColor=#028090;shadow=0;dashed=0;shape=mxgraph.ios7.icons.back;direction=north;labelBackgroundColor=#114B5F;fontColor=#E4FDE1;fillColor=#7EA6E0;" vertex="1" parent="1">
          <mxGeometry x="274.58" y="110" width="44.75" height="52" as="geometry" />
        </mxCell>
        <mxCell id="07-O2uwcBHounxBqs-oA-26" value="" style="html=1;verticalLabelPosition=bottom;align=center;verticalAlign=top;strokeWidth=2;strokeColor=#028090;shadow=0;dashed=0;shape=mxgraph.ios7.icons.back;direction=west;labelBackgroundColor=#114B5F;fontColor=#E4FDE1;fillColor=#7EA6E0;" vertex="1" parent="1">
          <mxGeometry x="500" y="110" width="60" height="52" as="geometry" />
        </mxCell>
        <mxCell id="07-O2uwcBHounxBqs-oA-28" value="" style="aspect=fixed;html=1;points=[];align=center;image;fontSize=12;image=img/lib/azure2/general/File.svg;labelBackgroundColor=#114B5F;fillColor=#F45B69;strokeColor=#028090;fontColor=#E4FDE1;" vertex="1" parent="1">
          <mxGeometry x="143.9" y="390" width="73.05" height="90" as="geometry" />
        </mxCell>
        <mxCell id="07-O2uwcBHounxBqs-oA-29" value="BASE DE DATOS&amp;nbsp;&lt;br&gt;" style="text;html=1;resizable=0;autosize=1;align=center;verticalAlign=middle;points=[];strokeColor=#028090;rounded=0;fontColor=#E4FDE1;fillColor=#392CF4;" vertex="1" parent="1">
          <mxGeometry x="361.51" y="10" width="110" height="20" as="geometry" />
        </mxCell>
        <mxCell id="07-O2uwcBHounxBqs-oA-31" value="&lt;font style=&quot;font-size: 17px&quot;&gt;&lt;b&gt;&lt;font style=&quot;font-size: 17px&quot; face=&quot;Times New Roman&quot;&gt;Estructura de un almacenamiento &lt;br&gt;de los datos&lt;/font&gt;&lt;/b&gt;&amp;nbsp;&lt;/font&gt;" style="text;html=1;resizable=0;autosize=1;align=center;verticalAlign=middle;points=[];fillColor=none;strokeColor=none;rounded=0;sketch=0;fontColor=#E4FDE1;" vertex="1" parent="1">
          <mxGeometry x="45" y="40" width="260" height="40" as="geometry" />
        </mxCell>
        <mxCell id="07-O2uwcBHounxBqs-oA-32" value="&lt;h1 style=&quot;font-size: 19px&quot;&gt;data file&amp;nbsp;&lt;br&gt;mdf- ndf&lt;/h1&gt;" style="text;html=1;resizable=0;autosize=1;align=center;verticalAlign=middle;points=[];fillColor=none;strokeColor=none;rounded=0;sketch=0;fontColor=#E4FDE1;" vertex="1" parent="1">
          <mxGeometry x="208.48" y="249" width="90" height="60" as="geometry" />
        </mxCell>
        <mxCell id="07-O2uwcBHounxBqs-oA-33" value="&lt;h1&gt;&lt;font style=&quot;font-size: 20px&quot;&gt;log file&amp;nbsp; .idf&lt;/font&gt;&lt;/h1&gt;" style="text;html=1;resizable=0;autosize=1;align=center;verticalAlign=middle;points=[];fillColor=none;strokeColor=none;rounded=0;sketch=0;fontColor=#E4FDE1;" vertex="1" parent="1">
          <mxGeometry x="578" y="240" width="120" height="50" as="geometry" />
        </mxCell>
        <mxCell id="07-O2uwcBHounxBqs-oA-36" value="" style="html=1;verticalLabelPosition=bottom;align=center;labelBackgroundColor=#ffffff;verticalAlign=top;strokeWidth=2;strokeColor=#0080F0;shadow=0;dashed=0;shape=mxgraph.ios7.icons.document;rounded=0;sketch=0;fillColor=#7EA6E0;gradientColor=none;fontColor=#E4FDE1;" vertex="1" parent="1">
          <mxGeometry x="120" y="340" width="21" height="30" as="geometry" />
        </mxCell>
        <mxCell id="07-O2uwcBHounxBqs-oA-37" value="" style="html=1;verticalLabelPosition=bottom;align=center;labelBackgroundColor=#ffffff;verticalAlign=top;strokeWidth=2;strokeColor=#0080F0;shadow=0;dashed=0;shape=mxgraph.ios7.icons.document;rounded=0;sketch=0;fillColor=#7EA6E0;gradientColor=none;fontColor=#E4FDE1;" vertex="1" parent="1">
          <mxGeometry x="160" y="340" width="21" height="30" as="geometry" />
        </mxCell>
        <mxCell id="07-O2uwcBHounxBqs-oA-38" value="" style="html=1;verticalLabelPosition=bottom;align=center;labelBackgroundColor=#ffffff;verticalAlign=top;strokeWidth=2;strokeColor=#0080F0;shadow=0;dashed=0;shape=mxgraph.ios7.icons.document;rounded=0;sketch=0;fillColor=#7EA6E0;gradientColor=none;fontColor=#E4FDE1;" vertex="1" parent="1">
          <mxGeometry x="195.95" y="340" width="21" height="30" as="geometry" />
        </mxCell>
        <mxCell id="07-O2uwcBHounxBqs-oA-39" value="" style="html=1;verticalLabelPosition=bottom;align=center;labelBackgroundColor=#ffffff;verticalAlign=top;strokeWidth=2;strokeColor=#0080F0;shadow=0;dashed=0;shape=mxgraph.ios7.icons.document;rounded=0;sketch=0;fillColor=#7EA6E0;gradientColor=none;fontColor=#E4FDE1;" vertex="1" parent="1">
          <mxGeometry x="230" y="340" width="21" height="30" as="geometry" />
        </mxCell>
        <mxCell id="07-O2uwcBHounxBqs-oA-40" value="" style="html=1;verticalLabelPosition=bottom;align=center;labelBackgroundColor=#ffffff;verticalAlign=top;strokeWidth=2;strokeColor=#0080F0;shadow=0;dashed=0;shape=mxgraph.ios7.icons.document;rounded=0;sketch=0;fillColor=#7EA6E0;gradientColor=none;fontColor=#E4FDE1;" vertex="1" parent="1">
          <mxGeometry x="269" y="340" width="21" height="30" as="geometry" />
        </mxCell>
        <mxCell id="07-O2uwcBHounxBqs-oA-41" value="" style="html=1;verticalLabelPosition=bottom;align=center;labelBackgroundColor=#ffffff;verticalAlign=top;strokeWidth=2;strokeColor=#0080F0;shadow=0;dashed=0;shape=mxgraph.ios7.icons.document;rounded=0;sketch=0;fillColor=#7EA6E0;gradientColor=none;fontColor=#E4FDE1;" vertex="1" parent="1">
          <mxGeometry x="310" y="340" width="21" height="30" as="geometry" />
        </mxCell>
        <mxCell id="07-O2uwcBHounxBqs-oA-42" value="" style="html=1;verticalLabelPosition=bottom;align=center;labelBackgroundColor=#ffffff;verticalAlign=top;strokeWidth=2;strokeColor=#0080F0;shadow=0;dashed=0;shape=mxgraph.ios7.icons.document;rounded=0;sketch=0;fillColor=#7EA6E0;gradientColor=none;fontColor=#E4FDE1;" vertex="1" parent="1">
          <mxGeometry x="350.18" y="340" width="21" height="30" as="geometry" />
        </mxCell>
        <mxCell id="07-O2uwcBHounxBqs-oA-43" value="" style="html=1;verticalLabelPosition=bottom;align=center;labelBackgroundColor=#ffffff;verticalAlign=top;strokeWidth=2;strokeColor=#0080F0;shadow=0;dashed=0;shape=mxgraph.ios7.icons.document;rounded=0;sketch=0;fillColor=#7EA6E0;gradientColor=none;fontColor=#E4FDE1;" vertex="1" parent="1">
          <mxGeometry x="393" y="340" width="21" height="30" as="geometry" />
        </mxCell>
        <mxCell id="07-O2uwcBHounxBqs-oA-44" value="&lt;h1 style=&quot;font-size: 15px&quot;&gt;&lt;font style=&quot;font-size: 15px&quot;&gt;extends&lt;br&gt; (8 paginas continuas)&lt;br&gt;&amp;nbsp;&lt;/font&gt;&lt;/h1&gt;" style="text;html=1;resizable=0;autosize=1;align=center;verticalAlign=middle;points=[];fillColor=none;strokeColor=none;rounded=0;sketch=0;fontColor=#E4FDE1;" vertex="1" parent="1">
          <mxGeometry x="414" y="320" width="170" height="70" as="geometry" />
        </mxCell>
        <mxCell id="07-O2uwcBHounxBqs-oA-45" value="&lt;h1&gt;&lt;font style=&quot;font-size: 14px&quot;&gt;se almacenan tablas, índices&amp;nbsp;&lt;/font&gt;&lt;/h1&gt;" style="text;html=1;resizable=0;autosize=1;align=center;verticalAlign=middle;points=[];fillColor=none;strokeColor=none;rounded=0;sketch=0;fontColor=#E4FDE1;" vertex="1" parent="1">
          <mxGeometry x="240" y="370" width="220" height="50" as="geometry" />
        </mxCell>
        <mxCell id="07-O2uwcBHounxBqs-oA-46" value="&lt;h1 style=&quot;font-size: 15px&quot;&gt;data 8 kb&lt;br&gt;max row size&amp;nbsp;&lt;br&gt;8092 bytes&lt;/h1&gt;" style="text;html=1;resizable=0;autosize=1;align=center;verticalAlign=middle;points=[];fillColor=none;strokeColor=none;rounded=0;sketch=0;fontColor=#E4FDE1;" vertex="1" parent="1">
          <mxGeometry x="45" y="410" width="110" height="70" as="geometry" />
        </mxCell>
      </root>
    </mxGraphModel>
  </diagram>
</mxfile>
